{
  "page": 1,
  "total_results": 10000,
  "total_pages": 500,
  "results": [
    {
      "popularity": 2498.29,
      "vote_count": 28,
      "video": false,
      "poster_path": "/ugZW8ocsrfgI95pnQ7wrmKDxIe.jpg",
      "id": 724989,
      "adult": false,
      "backdrop_path": "/86L8wqGMDbwURPni2t7FQ0nDjsH.jpg",
      "original_language": "en",
      "original_title": "Hard Kill",
      "genre_ids": [
        28,
        53
      ],
      "title": "Hard Kill",
      "vote_average": 4.2,
      "overview": "The work of billionaire tech CEO Donovan Chalmers is so valuable that he hires mercenaries to protect it, and a terrorist group kidnaps his daughter just to get it.",
      "release_date": "2020-10-23"
    },
    {
      "popularity": 1850.564,
      "vote_count": 198,
      "video": false,
      "poster_path": "/7D430eqZj8y3oVkLFfsWXGRcpEG.jpg",
      "id": 528085,
      "adult": false,
      "backdrop_path": "/5UkzNSOK561c2QRy2Zr4AkADzLT.jpg",
      "original_language": "en",
      "original_title": "2067",
      "genre_ids": [
        18,
        878,
        53
      ],
      "title": "2067",
      "vote_average": 5.4,
      "overview": "A lowly utility worker is called to the future by a mysterious radio signal, he must leave his dying wife to embark on a journey that will force him to face his deepest fears in an attempt to change the fabric of reality and save humankind from its greatest environmental crisis yet.",
      "release_date": "2020-10-01"
    },
    {
      "popularity": 1191.536,
      "vote_count": 20,
      "video": false,
      "poster_path": "/h8Rb9gBr48ODIwYUttZNYeMWeUU.jpg",
      "id": 635302,
      "adult": false,
      "backdrop_path": "/xoqr4dMbRJnzuhsWDF3XNHQwJ9x.jpg",
      "original_language": "ja",
      "original_title": "劇場版「鬼滅の刃」無限列車編",
      "genre_ids": [
        28,
        12,
        16,
        18,
        14,
        36
      ],
      "title": "Demon Slayer: Kimetsu no Yaiba - The Movie: Mugen Train",
      "vote_average": 7.5,
      "overview": "Tanjirō Kamado, joined with Inosuke Hashibira, a boy raised by boars who wears a boar's head, and Zenitsu Agatsuma, a scared boy who reveals his true power when he sleeps, boards the Infinity Train on a new mission with the Fire Hashira, Kyōjurō Rengoku, to defeat a demon who has been tormenting the people and killing the demon slayers who oppose it!",
      "release_date": "2020-10-16"
    },
    {
      "popularity": 1136.702,
      "vote_count": 275,
      "video": false,
      "poster_path": "/betExZlgK0l7CZ9CsCBVcwO1OjL.jpg",
      "id": 531219,
      "adult": false,
      "backdrop_path": "/f2rYRh4TmhHZutQR2wL2tm97G6I.jpg",
      "original_language": "en",
      "original_title": "Roald Dahl's The Witches",
      "genre_ids": [
        12,
        35,
        14,
        27,
        10751
      ],
      "title": "Roald Dahl's The Witches",
      "vote_average": 7.3,
      "overview": "In late 1967, a young orphaned boy goes to live with his loving grandma in the rural Alabama town of Demopolis. As the boy and his grandmother encounter some deceptively glamorous but thoroughly diabolical witches, she wisely whisks him away to a seaside resort. Regrettably, they arrive at precisely the same time that the world's Grand High Witch has gathered.",
      "release_date": "2020-10-26"
    },
    {
      "popularity": 1120.83,
      "vote_count": 2295,
      "video": false,
      "poster_path": "/riYInlsq2kf1AWoGm80JQW5dLKp.jpg",
      "id": 497582,
      "adult": false,
      "backdrop_path": "/kMe4TKMDNXTKptQPAdOF0oZHq3V.jpg",
      "original_language": "en",
      "original_title": "Enola Holmes",
      "genre_ids": [
        80,
        18,
        9648
      ],
      "title": "Enola Holmes",
      "vote_average": 7.6,
      "overview": "While searching for her missing mother, intrepid teen Enola Holmes uses her sleuthing skills to outsmart big brother Sherlock and help a runaway lord.",
      "release_date": "2020-09-23"
    },
    {
      "popularity": 1082.838,
      "vote_count": 128,
      "video": false,
      "poster_path": "/elZ6JCzSEvFOq4gNjNeZsnRFsvj.jpg",
      "id": 741067,
      "adult": false,
      "backdrop_path": "/aO5ILS7qnqtFIprbJ40zla0jhpu.jpg",
      "original_language": "en",
      "original_title": "Welcome to Sudden Death",
      "genre_ids": [
        28,
        12,
        18,
        53
      ],
      "title": "Welcome to Sudden Death",
      "vote_average": 6.4,
      "overview": "Jesse Freeman is a former special forces officer and explosives expert now working a regular job as a security guard in a state-of-the-art basketball arena. Trouble erupts when a tech-savvy cadre of terrorists kidnap the team's owner and Jesse's daughter during opening night. Facing a ticking clock and impossible odds, it's up to Jesse to not only save them but also a full house of fans in this highly charged action thriller.",
      "release_date": "2020-09-29"
    },
    {
      "popularity": 800.945,
      "vote_count": 188,
      "video": false,
      "poster_path": "/r4Lm1XKP0VsTgHX4LG4syAwYA2I.jpg",
      "id": 590223,
      "adult": false,
      "backdrop_path": "/lA5fOBqTOQBQ1s9lEYYPmNXoYLi.jpg",
      "original_language": "en",
      "original_title": "Love and Monsters",
      "genre_ids": [
        28,
        12,
        35,
        878
      ],
      "title": "Love and Monsters",
      "vote_average": 7.7,
      "overview": "Seven years after the Monsterpocalypse, Joel Dawson, along with the rest of humanity, has been living underground ever since giant creatures took control of the land. After reconnecting over radio with his high school girlfriend Aimee, who is now 80 miles away at a coastal colony, Joel begins to fall for her again. As Joel realizes that there’s nothing left for him underground, he decides against all logic to venture out to Aimee, despite all the dangerous monsters that stand in his way.",
      "release_date": "2020-10-16"
    },
    {
      "popularity": 697.651,
      "vote_count": 2,
      "video": false,
      "poster_path": "/eHFJ15cZ1pfk60XTcTl9GYxnhf6.jpg",
      "id": 733278,
      "adult": false,
      "backdrop_path": "/bMrYAvAE5MalHKglxAKduqV5S4k.jpg",
      "original_language": "en",
      "original_title": "Picture Perfect Mysteries: Exit Stage Death",
      "genre_ids": [],
      "title": "Picture Perfect Mysteries: Exit Stage Death",
      "vote_average": 6,
      "overview": "While backstage on opening night of a new play by celebrated murder mystery author/director Neil Khan, photographer Allie Adams discovers the body of the show’s leading lady, murdered before the curtain went up. As Willow Haven PD Detective Sam Acosta launches his investigation, he invites Allie – who has been helpful in solving his first two murder cases since joining the force -- to unofficially assist him on the. case. However, Allie’s involvement makes her a target for murder herself when she gets too close to the truth.",
      "release_date": "2020-10-11"
    },
    {
      "popularity": 660.915,
      "vote_count": 2656,
      "video": false,
      "poster_path": "/aKx1ARwG55zZ0GpRvU2WrGrCG9o.jpg",
      "id": 337401,
      "adult": false,
      "backdrop_path": "/zzWGRw277MNoCs3zhyG3YmYQsXv.jpg",
      "original_language": "en",
      "original_title": "Mulan",
      "genre_ids": [
        28,
        12,
        18,
        14
      ],
      "title": "Mulan",
      "vote_average": 7.3,
      "overview": "When the Emperor of China issues a decree that one man per family must serve in the Imperial Chinese Army to defend the country from Huns, Hua Mulan, the eldest daughter of an honored warrior, steps in to take the place of her ailing father. She is spirited, determined and quick on her feet. Disguised as a man by the name of Hua Jun, she is tested every step of the way and must harness her innermost strength and embrace her true potential.",
      "release_date": "2020-09-04"
    },
    {
      "popularity": 652.48,
      "vote_count": 324,
      "video": false,
      "poster_path": "/uOw5JD8IlD546feZ6oxbIjvN66P.jpg",
      "id": 718444,
      "adult": false,
      "backdrop_path": "/x4UkhIQuHIJyeeOTdcbZ3t3gBSa.jpg",
      "original_language": "en",
      "original_title": "Rogue",
      "genre_ids": [
        28,
        12,
        18,
        53
      ],
      "title": "Rogue",
      "vote_average": 5.9,
      "overview": "Battle-hardened O’Hara leads a lively mercenary team of soldiers on a daring mission: rescue hostages from their captors in remote Africa. But as the mission goes awry and the team is stranded, O’Hara’s squad must face a bloody, brutal encounter with a gang of rebels.",
      "release_date": "2020-08-20"
    },
    {
      "popularity": 632.725,
      "vote_count": 0,
      "video": false,
      "poster_path": "/4q2hz2m8hubgvijz8Ez0T2Os2Yv.jpg",
      "id": 520763,
      "adult": false,
      "backdrop_path": "/z2UtGA1WggESspi6KOXeo66lvLx.jpg",
      "original_language": "en",
      "original_title": "A Quiet Place Part II",
      "genre_ids": [
        18,
        878,
        53
      ],
      "title": "A Quiet Place Part II",
      "vote_average": 0,
      "overview": "Following the events at home, the Abbott family now face the terrors of the outside world. Forced to venture into the unknown, they realize that the creatures that hunt by sound are not the only threats that lurk beyond the sand path.",
      "release_date": "2021-04-21"
    },
    {
      "popularity": 630.178,
      "vote_count": 964,
      "video": false,
      "poster_path": "/kiX7UYfOpYrMFSAGbI6j1pFkLzQ.jpg",
      "id": 613504,
      "adult": false,
      "backdrop_path": "/6hgItrYQEG33y0I7yP2SRl2ei4w.jpg",
      "original_language": "en",
      "original_title": "After We Collided",
      "genre_ids": [
        18,
        10749
      ],
      "title": "After We Collided",
      "vote_average": 7.2,
      "overview": "Tessa finds herself struggling with her complicated relationship with Hardin; she faces a dilemma that could change their lives forever.",
      "release_date": "2020-09-02"
    },
    {
      "popularity": 627.319,
      "vote_count": 154,
      "video": false,
      "poster_path": "/6CoRTJTmijhBLJTUNoVSUNxZMEI.jpg",
      "id": 694919,
      "adult": false,
      "backdrop_path": "/pq0JSpwyT2URytdFG0euztQPAyR.jpg",
      "original_language": "en",
      "original_title": "Money Plane",
      "genre_ids": [
        28
      ],
      "title": "Money Plane",
      "vote_average": 5.9,
      "overview": "A professional thief with $40 million in debt and his family's life on the line must commit one final heist - rob a futuristic airborne casino filled with the world's most dangerous criminals.",
      "release_date": "2020-09-29"
    },
    {
      "popularity": 621.144,
      "vote_count": 541,
      "video": false,
      "poster_path": "/qzA87Wf4jo1h8JMk9GilyIYvwsA.jpg",
      "id": 539885,
      "adult": false,
      "backdrop_path": "/54yOImQgj8i85u9hxxnaIQBRUuo.jpg",
      "original_language": "en",
      "original_title": "Ava",
      "genre_ids": [
        28,
        80,
        18,
        53
      ],
      "title": "Ava",
      "vote_average": 5.8,
      "overview": "A black ops assassin is forced to fight for her own survival after a job goes dangerously wrong.",
      "release_date": "2020-07-02"
    },
    {
      "popularity": 609.083,
      "vote_count": 76,
      "video": false,
      "poster_path": "/bkld8Me0WiLWipLORRNfF1yIPHu.jpg",
      "id": 624963,
      "adult": false,
      "backdrop_path": "/ezLKohe4HKsHQbwQwhv0ARo83NC.jpg",
      "original_language": "en",
      "original_title": "A Babysitter's Guide to Monster Hunting",
      "genre_ids": [
        12,
        35,
        14,
        10751
      ],
      "title": "A Babysitter's Guide to Monster Hunting",
      "vote_average": 6.1,
      "overview": "Recruited by a secret society of babysitters, a high schooler battles the Boogeyman and his monsters when they nab the boy she's watching on Halloween.",
      "release_date": "2020-10-14"
    },
    {
      "popularity": 609.078,
      "vote_count": 673,
      "video": false,
      "poster_path": "/sy6DvAu72kjoseZEjocnm2ZZ09i.jpg",
      "id": 581392,
      "adult": false,
      "backdrop_path": "/2nFzxaAK7JIsk6l7qZ8rFBsa3yW.jpg",
      "original_language": "ko",
      "original_title": "반도",
      "genre_ids": [
        28,
        27,
        53
      ],
      "title": "Peninsula",
      "vote_average": 7,
      "overview": "A soldier and his team battle hordes of post-apocalyptic zombies in the wastelands of the Korean Peninsula.",
      "release_date": "2020-07-15"
    },
    {
      "popularity": 596.957,
      "vote_count": 468,
      "video": false,
      "poster_path": "/6agKYU5IQFpuDyUYPu39w7UCRrJ.jpg",
      "id": 740985,
      "adult": false,
      "backdrop_path": "/3Ysvp4ODDC6sucdQ9quHWkMiKED.jpg",
      "original_language": "en",
      "original_title": "Borat Subsequent Moviefilm",
      "genre_ids": [
        35,
        99
      ],
      "title": "Borat Subsequent Moviefilm",
      "vote_average": 6.8,
      "overview": "14 years after making a film about his journey across the USA, Borat risks life and limb when he returns to the United States with his young daughter, and reveals more about the culture, the COVID-19 pandemic, and the political elections.",
      "release_date": "2020-10-23"
    },
    {
      "popularity": 574.602,
      "vote_count": 2476,
      "video": false,
      "poster_path": "/p7ARuNKUGPGvkBiDtIDvAzYzonX.jpg",
      "id": 9286,
      "adult": false,
      "backdrop_path": "/57wvmRaKGtkn02m64qsKhBiDbHY.jpg",
      "original_language": "en",
      "original_title": "Final Destination 3",
      "genre_ids": [
        27,
        9648
      ],
      "title": "Final Destination 3",
      "vote_average": 6,
      "overview": "A student's premonition of a deadly rollercoaster ride saves her life and a lucky few, but not from death itself – which seeks out those who escaped their fate.",
      "release_date": "2006-02-09"
    },
    {
      "popularity": 573.167,
      "vote_count": 225,
      "video": false,
      "poster_path": "/vJHSParlylICnI7DuuI54nfTPRR.jpg",
      "id": 438396,
      "adult": false,
      "backdrop_path": "/qGZe9qTuydxyJYQ60XDtEckzLR8.jpg",
      "original_language": "es",
      "original_title": "Orígenes secretos",
      "genre_ids": [
        18,
        53
      ],
      "title": "Unknown Origins",
      "vote_average": 6.2,
      "overview": "In Madrid, Spain, a mysterious serial killer ruthlessly murders his victims by recreating the first appearance of several comic book superheroes. Cosme, a veteran police inspector who is about to retire, works on the case along with the tormented inspector David Valentín and his own son Jorge Elías, a nerdy young man who owns a comic book store.",
      "release_date": "2020-08-28"
    },
    {
      "popularity": 572.414,
      "vote_count": 15,
      "video": false,
      "poster_path": "/z0r3YjyJSLqf6Hz0rbBAnEhNXQ7.jpg",
      "id": 697064,
      "adult": false,
      "backdrop_path": "/7WKIOXJa2JjHygE8Yta3uaCv6GC.jpg",
      "original_language": "en",
      "original_title": "Beckman",
      "genre_ids": [
        28
      ],
      "title": "Beckman",
      "vote_average": 4.6,
      "overview": "A contract killer, becomes the reverend of a LA church, until a cult leader and his minions kidnap his daughter. Blinded by vengeance, he cuts a bloody path across the city. The only thing that can stop him is his newfound faith.",
      "release_date": "2020-09-10"
    }
  ]
}